lista7/lossy_channel_tb.vcd
$date
  Thu May 18 13:33:15 2017
$end
$version
  GHDL v0
$end
$timescale
  1 fs
$end
$var reg 1 ! clk $end
$var reg 1 " work $end
$var reg 4 # data_in[3:0] $end
$var reg 4 $ encoder_data_in[3:0] $end
$var reg 8 % decoder_data_in[7:0] $end
$var reg 4 & data_out[3:0] $end
$var reg 8 ' encoder_data_out[7:0] $end
$var reg 4 ( decoder_data_out[3:0] $end
$scope module enc $end
$var reg 1 ) clk $end
$var reg 1 * work $end
$var reg 4 + data_in[3:0] $end
$var reg 8 , data_out[7:0] $end
$upscope $end
$scope module lc $end
$var reg 1 - clk $end
$var reg 1 . work $end
$var reg 8 / data_in[7:0] $end
$var reg 8 0 data_out[7:0] $end
$var reg 16 1 q_rand[15:0] $end
$var reg 3 2 decision[2:0] $end
$var reg 3 3 place1[2:0] $end
$var reg 3 4 place2[2:0] $end
$scope module randomizer $end
$var reg 1 5 clk $end
$var reg 16 6 q[15:0] $end
$var reg 16 7 qq[15:0] $end
$upscope $end
$upscope $end
$scope module dec $end
$var reg 1 8 clk $end
$var reg 1 9 work $end
$var reg 8 : data_in[7:0] $end
$var reg 4 ; data_out[3:0] $end
$upscope $end
$enddefinitions $end
#0
0!
0"
b0000 #
b0000 $
b00000000 %
b0000 &
b00000000 '
b0000 (
0)
0*
b0000 +
b00000000 ,
0-
0.
b00000000 /
b00000000 0
b0000000000000000 1
b000 2
b000 3
b000 4
05
b0000000000000000 6
b0000000000000001 7
08
09
b00000000 :
b0000 ;
#10000000
1!
1)
1-
b0000000000000001 1
b100 3
15
b0000000000000001 6
b0000000000000011 7
18
#20000000
0!
0)
0-
05
08
#30000000
1!
1)
1-
b0000000000000011 1
b100 2
15
b0000000000000011 6
b0000000000000111 7
18
#40000000
0!
0)
0-
05
08
#50000000
1!
1)
1-
b0000000000000111 1
b100 4
15
b0000000000000111 6
b0000000000001111 7
18
#60000000
0!
0)
0-
05
08
#70000000
1!
1)
1-
b0000000000001111 1
15
b0000000000001111 6
b0000000000011111 7
18
#80000000
0!
0)
0-
05
08
#90000000
1!
1)
1-
b0000000000011111 1
b110 2
15
b0000000000011111 6
b0000000000111110 7
18
#100000000
0!
1"
0)
1*
0-
1.
05
08
19
#110000000
1!
1)
1-
b0000000000111110 1
b010 3
15
b0000000000111110 6
b0000000001111100 7
18
#120000000
0!
0)
0-
05
08
#130000000
1!
1)
1-
b0000000001111100 1
b010 2
15
b0000000001111100 6
b0000000011111000 7
18
#140000000
0!
b0001 #
b01101111 %
b0111 &
b00001111 '
0)
b0001 +
b00001111 ,
0-
b00001111 /
b01101111 0
05
08
b01101111 :
b0111 ;
#150000000
1!
1)
1-
b0000000011111000 1
b010 4
15
b0000000011111000 6
b0000000111110000 7
18
#160000000
0!
0)
0-
05
08
#170000000
1!
1)
1-
b0000000111110000 1
b011 4
15
b0000000111110000 6
b0000001111100000 7
18
#180000000
0!
b0010 #
b01010011 %
b0100 &
b00110011 '
0)
b0010 +
b00110011 ,
0-
b00110011 /
b01010011 0
05
08
b01010011 :
b0100 ;
#190000000
1!
1)
1-
b0000001111100000 1
b000 2
15
b0000001111100000 6
b0000011111000001 7
18
#200000000
0!
0)
0-
05
08
#210000000
1!
1)
1-
b0000011111000001 1
b101 3
15
b0000011111000001 6
b0000111110000011 7
18
#220000000
0!
b0011 #
b00111100 %
b0011 &
b00111100 '
0)
b0011 +
b00111100 ,
0-
b00111100 /
b00111100 0
05
08
b00111100 :
b0011 ;
#230000000
1!
1)
1-
b0000111110000011 1
b100 2
15
b0000111110000011 6
b0001111100000111 7
18
#240000000
0!
0)
0-
05
08
#250000000
1!
1)
1-
b0001111100000111 1
b101 4
15
b0001111100000111 6
b0011111000001111 7
18
#260000000
0!
b0100 #
b01010101 %
b0100 &
b01010101 '
0)
b0100 +
b01010101 ,
0-
b01010101 /
b01010101 0
05
08
b01010101 :
b0100 ;
#270000000
1!
1)
1-
b0011111000001111 1
b101 2
b100 4
15
b0011111000001111 6
b0111110000011110 7
18
#280000000
0!
0)
0-
05
08
#290000000
1!
1)
1-
b0111110000011110 1
b111 2
b001 3
15
b0111110000011110 6
b1111100000111100 7
18
#300000000
0!
b0101 #
b01011010 %
b0101 &
b01011010 '
0)
b0101 +
b01011010 ,
0-
b01011010 /
b01011010 0
05
08
b01011010 :
b0101 ;
#310000000
1!
1)
1-
b1111100000111100 1
b011 2
b010 3
15
b1111100000111100 6
b1111000001111001 7
18
#320000000
0!
0)
0-
05
08
#330000000
1!
1)
1-
b1111000001111001 1
b110 3
b000 4
15
b1111000001111001 6
b1110000011110011 7
18
#340000000
0!
b0110 #
b01100110 %
b0110 &
b01100110 '
0)
b0110 +
b01100110 ,
0-
b01100110 /
b01100110 0
05
08
b01100110 :
b0110 ;
#350000000
1!
1)
1-
b1110000011110011 1
b111 2
b010 4
15
b1110000011110011 6
b1100000111100111 7
18
#360000000
0!
0)
0-
05
08
#370000000
1!
1)
1-
b1100000111100111 1
b100 2
b111 4
15
b1100000111100111 6
b1000001111001111 7
18
#380000000
0!
b0111 #
b01101001 %
b0111 &
b01101001 '
0)
b0111 +
b01101001 ,
0-
b01101001 /
b01101001 0
05
08
b01101001 :
b0111 ;
#390000000
1!
1)
1-
b1000001111001111 1
b100 3
15
b1000001111001111 6
b0000011110011110 7
18
#400000000
0!
0)
0-
05
08
#410000000
1!
1)
1-
b0000011110011110 1
b110 2
b001 3
15
b0000011110011110 6
b0000111100111100 7
18
#420000000
0!
b1000 #
b10010110 %
b1000 &
b10010110 '
0)
b1000 +
b10010110 ,
0-
b10010110 /
b10010110 0
05
08
b10010110 :
b1000 ;
#430000000
1!
1)
1-
b0000111100111100 1
b010 2
b011 3
b101 4
15
b0000111100111100 6
b0001111001111000 7
18
#440000000
0!
0)
0-
05
08
#450000000
1!
1)
1-
b0001111001111000 1
b000 4
15
b0001111001111000 6
b0011110011110000 7
18
#460000000
0!
b1001 #
b11111001 %
b1111 &
b10011001 '
0)
b1001 +
b10011001 ,
0-
b10011001 /
b11111001 0
05
08
b11111001 :
b1111 ;
#470000000
1!
1)
1-
b0011110011110000 1
b011 2
b010 4
15
b0011110011110000 6
b0111100111100001 7
18
#480000000
0!
0)
0-
05
08
#490000000
1!
1)
1-
b0111100111100001 1
b001 2
b110 3
b011 4
15
b0111100111100001 6
b1111001111000011 7
18
#500000000
0!
b1010 #
b10100101 %
b1010 &
b10100101 '
0)
b1010 +
b10100101 ,
0-
b10100101 /
b10100101 0
05
08
b10100101 :
b1010 ;
#510000000
1!
1)
1-
b1111001111000011 1
b101 2
b100 3
15
b1111001111000011 6
b1110011110000110 7
18
#520000000
0!
0)
0-
05
08
#530000000
1!
1)
1-
b1110011110000110 1
b001 3
b111 4
15
b1110011110000110 6
b1100111100001100 7
18
#540000000
0!
b1011 #
b10101010 %
b1011 &
b10101010 '
0)
b1011 +
b10101010 ,
0-
b10101010 /
b10101010 0
05
08
b10101010 :
b1011 ;
#550000000
1!
1)
1-
b1100111100001100 1
b000 2
b101 4
15
b1100111100001100 6
b1001111000011001 7
18
#560000000
0!
0)
0-
05
08
#570000000
1!
1)
1-
b1001111000011001 1
b010 2
b101 3
b000 4
15
b1001111000011001 6
b0011110000110011 7
18
#580000000
0!
b1100 #
b10100011 %
b1010 &
b11000011 '
0)
b1100 +
b11000011 ,
0-
b11000011 /
b10100011 0
05
08
b10100011 :
b1010 ;
#590000000
1!
1)
1-
b0011110000110011 1
b111 2
b111 3
15
b0011110000110011 6
b0111100001100111 7
18
#600000000
0!
0)
0-
05
08
#610000000
1!
1)
1-
b0111100001100111 1
b101 2
b110 3
b100 4
15
b0111100001100111 6
b1111000011001111 7
18
#620000000
0!
b1101 #
b11001100 %
b1101 &
b11001100 '
0)
b1101 +
b11001100 ,
0-
b11001100 /
b11001100 0
05
08
b11001100 :
b1101 ;
#630000000
1!
1)
1-
b1111000011001111 1
b100 3
b110 4
15
b1111000011001111 6
b1110000110011110 7
18
#640000000
0!
0)
0-
05
08
#650000000
1!
1)
1-
b1110000110011110 1
b111 2
b000 3
b111 4
15
b1110000110011110 6
b1100001100111101 7
18
#660000000
0!
b1110 #
b11110000 %
b1110 &
b11110000 '
0)
b1110 +
b11110000 ,
0-
b11110000 /
b11110000 0
05
08
b11110000 :
b1110 ;
#670000000
1!
1)
1-
b1100001100111101 1
b010 2
b110 3
b101 4
15
b1100001100111101 6
b1000011001111010 7
18
#680000000
0!
0)
0-
05
08
#690000000
1!
1)
1-
b1000011001111010 1
b110 2
b011 3
b000 4
15
b1000011001111010 6
b0000110011110101 7
18
#700000000
0!
b1111 #
b11111111 %
b1111 &
b11111111 '
0)
b1111 +
b11111111 ,
0-
b11111111 /
b11111111 0
05
08
b11111111 :
b1111 ;
#710000000
1!
1)
1-
b0000110011110101 1
b010 2
b111 3
b110 4
15
b0000110011110101 6
b0001100111101010 7
18
#720000000
0!
0)
0-
05
08
#730000000
1!
1)
1-
b0001100111101010 1
b100 2
b010 3
b011 4
15
b0001100111101010 6
b0011001111010101 7
18
#740000000
0!
0)
0-
05
08
#750000000
1!
1)
1-
b0011001111010101 1
b011 2
b100 3
b111 4
15
b0011001111010101 6
b0110011110101011 7
18
#760000000
0!
0)
0-
05
08
#770000000
1!
1)
1-
b0110011110101011 1
b101 2
b111 3
b011 4
15
b0110011110101011 6
b1100111101010111 7
18
#780000000
0!
0)
0-
05
08
#790000000
1!
1)
1-
b1100111101010111 1
b110 2
b101 3
b101 4
15
b1100111101010111 6
b1001111010101110 7
18
#800000000
0!
0)
0-
05
08
#810000000
1!
1)
1-
b1001111010101110 1
b100 2
b011 3
b110 4
15
b1001111010101110 6
b0011110101011100 7
18
#820000000
0!
0)
0-
05
08
#830000000
1!
1)
1-
b0011110101011100 1
b011 2
b001 3
b101 4
15
b0011110101011100 6
b0111101010111001 7
18
#840000000
0!
0)
0-
05
08
#850000000
1!
1)
1-
b0111101010111001 1
b110 3
b010 4
15
b0111101010111001 6
b1111010101110010 7
18
#860000000
0!
0)
0-
05
08
#870000000
1!
1)
1-
b1111010101110010 1
b111 2
b011 3
b001 4
15
b1111010101110010 6
b1110101011100101 7
18
#880000000
0!
0)
0-
05
08
#890000000
1!
1)
1-
b1110101011100101 1
b001 2
b110 3
b110 4
15
b1110101011100101 6
b1101010111001010 7
18
#900000000
0!
0)
0-
05
08
#910000000
1!
1)
1-
b1101010111001010 1
b100 2
b001 3
b011 4
15
b1101010111001010 6
b1010101110010101 7
18
#920000000
0!
0)
0-
05
08
#930000000
1!
1)
1-
b1010101110010101 1
b011 2
b100 3
b111 4
15
b1010101110010101 6
b0101011100101010 7
18
#940000000
0!
0)
0-
05
08
#950000000
1!
1)
1-
b0101011100101010 1
b100 2
b011 3
b001 4
15
b0101011100101010 6
b1010111001010100 7
18
#960000000
0!
0)
0-
05
08
#970000000
1!
1)
1-
b1010111001010100 1
b011 2
b001 3
b100 4
15
b1010111001010100 6
b0101110010101000 7
18
#980000000
0!
0)
0-
05
08
#990000000
1!
1)
1-
b0101110010101000 1
b000 2
b011 3
b010 4
15
b0101110010101000 6
b1011100101010000 7
18
#1000000000
0!
0)
0-
05
08
#1010000000
1!
1)
1-
b1011100101010000 1
b011 2
b000 3
b001 4
15
b1011100101010000 6
b0111001010100000 7
18
#1020000000
0!
0)
0-
05
08
#1030000000
1!
1)
1-
b0111001010100000 1
b001 2
b010 3
b010 4
15
b0111001010100000 6
b1110010101000001 7
18
#1040000000
0!
0)
0-
05
08
#1050000000
1!
1)
1-
b1110010101000001 1
b101 3
b001 4
15
b1110010101000001 6
b1100101010000010 7
18
#1060000000
0!
0)
0-
05
08
#1070000000
1!
1)
1-
b1100101010000010 1
b100 2
b000 3
b010 4
15
b1100101010000010 6
b1001010100000101 7
18
#1080000000
0!
0)
0-
05
08
#1090000000
1!
1)
1-
b1001010100000101 1
b000 2
b101 3
b101 4
15
b1001010100000101 6
b0010101000001010 7
18
#1100000000
0!
0)
0-
05
08
#1110000000
1!
1)
1-
b0010101000001010 1
b101 2
b000 3
b000 4
15
b0010101000001010 6
b0101010000010100 7
18
#1120000000
0!
0)
0-
05
08
#1130000000
1!
1)
1-
b0101010000010100 1
b010 2
b001 3
b100 4
15
b0101010000010100 6
b1010100000101001 7
18
#1140000000
0!
0)
0-
05
08
#1150000000
1!
1)
1-
b1010100000101001 1
b001 2
b110 3
b000 4
15
b1010100000101001 6
b0101000001010011 7
18
#1160000000
0!
0)
0-
05
08
#1170000000
1!
1)
1-
b0101000001010011 1
b110 2
b100 3
15
b0101000001010011 6
b1010000010100111 7
18
#1180000000
0!
0)
0-
05
08
#1190000000
1!
1)
1-
b1010000010100111 1
b101 2
b110 3
b110 4
15
b1010000010100111 6
b0100000101001111 7
18
#1200000000
0!
0)
0-
05
08
#1210000000
1!
1)
1-
b0100000101001111 1
b100 2
b100 3
b101 4
15
b0100000101001111 6
b1000001010011110 7
18
#1220000000
0!
0)
0-
05
08
#1230000000
1!
1)
1-
b1000001010011110 1
b110 2
b000 3
b110 4
15
b1000001010011110 6
b0000010100111101 7
18
#1240000000
0!
0)
0-
05
08
#1250000000
1!
1)
1-
b0000010100111101 1
b010 2
b111 3
b101 4
15
b0000010100111101 6
b0000101001111010 7
18
#1260000000
0!
0)
0-
05
08
#1270000000
1!
1)
1-
b0000101001111010 1
b110 2
b010 3
b000 4
15
b0000101001111010 6
b0001010011110100 7
18
#1280000000
0!
0)
0-
05
08
#1290000000
1!
1)
1-
b0001010011110100 1
b010 2
b011 3
b110 4
15
b0001010011110100 6
b0010100111101000 7
18
#1300000000
0!
0)
0-
05
08
#1310000000
1!
1)
1-
b0010100111101000 1
b001 2
b010 3
b011 4
15
b0010100111101000 6
b0101001111010000 7
18
#1320000000
0!
0)
0-
05
08
#1330000000
1!
1)
1-
b0101001111010000 1
b010 2
b000 3
15
b0101001111010000 6
b1010011110100001 7
18
#1340000000
0!
0)
0-
05
08
#1350000000
1!
1)
1-
b1010011110100001 1
b001 2
b111 3
15
b1010011110100001 6
b0100111101000011 7
18
#1360000000
0!
0)
0-
05
08
#1370000000
1!
1)
1-
b0100111101000011 1
b100 2
b101 3
b001 4
15
b0100111101000011 6
b1001111010000110 7
18
#1380000000
0!
0)
0-
05
08
#1390000000
1!
1)
1-
b1001111010000110 1
b001 3
b110 4
15
b1001111010000110 6
b0011110100001100 7
18
#1400000000
0!
0)
0-
05
08
#1410000000
1!
1)
1-
b0011110100001100 1
b001 2
b101 4
15
b0011110100001100 6
b0111101000011000 7
18
#1420000000
0!
0)
0-
05
08
#1430000000
1!
1)
1-
b0111101000011000 1
b011 2
b000 3
b000 4
15
b0111101000011000 6
b1111010000110000 7
18
#1440000000
0!
0)
0-
05
08
#1450000000
1!
1)
1-
b1111010000110000 1
b011 3
15
b1111010000110000 6
b1110100001100001 7
18
#1460000000
0!
0)
0-
05
08
#1470000000
1!
1)
1-
b1110100001100001 1
b001 2
b110 3
15
b1110100001100001 6
b1101000011000010 7
18
#1480000000
0!
0)
0-
05
08
#1490000000
1!
1)
1-
b1101000011000010 1
b100 2
b000 3
b010 4
15
b1101000011000010 6
b1010000110000101 7
18
#1500000000
0!
0)
0-
05
08
#1510000000
1!
1)
1-
b1010000110000101 1
b001 2
b100 3
b111 4
15
b1010000110000101 6
b0100001100001011 7
18
#1520000000
0!
0)
0-
05
08
#1530000000
1!
1)
1-
b0100001100001011 1
b100 2
b001 4
15
b0100001100001011 6
b1000011000010110 7
18
#1540000000
0!
0)
0-
05
08
#1550000000
1!
1)
1-
b1000011000010110 1
b110 2
b001 3
b100 4
15
b1000011000010110 6
b0000110000101101 7
18
#1560000000
0!
0)
0-
05
08
#1570000000
1!
1)
1-
b0000110000101101 1
b000 2
b111 3
15
b0000110000101101 6
b0001100001011011 7
18
#1580000000
0!
0)
0-
05
08
#1590000000
1!
1)
1-
b0001100001011011 1
b110 2
b100 3
b000 4
15
b0001100001011011 6
b0011000010110110 7
18
#1600000000
0!
0)
0-
05
08
#1610000000
1!
1)
1-
b0011000010110110 1
b111 2
b010 3
b110 4
15
b0011000010110110 6
b0110000101101101 7
18
#1620000000
0!
0)
0-
05
08
#1630000000
1!
1)
1-
b0110000101101101 1
b001 2
b110 3
b101 4
15
b0110000101101101 6
b1100001011011011 7
18
#1640000000
0!
0)
0-
05
08
#1650000000
1!
1)
1-
b1100001011011011 1
b110 2
b100 3
b010 4
15
b1100001011011011 6
b1000010110110110 7
18
#1660000000
0!
0)
0-
05
08
#1670000000
1!
1)
1-
b1000010110110110 1
b011 3
b111 4
15
b1000010110110110 6
b0000101101101101 7
18
#1680000000
0!
0)
0-
05
08
#1690000000
1!
1)
1-
b0000101101101101 1
b000 2
b110 3
b101 4
15
b0000101101101101 6
b0001011011011011 7
18
#1700000000
0!
0)
0-
05
08
#1710000000
1!
1)
1-
b0001011011011011 1
b110 2
b101 3
b010 4
15
b0001011011011011 6
b0010110110110110 7
18
#1720000000
0!
0)
0-
05
08
#1730000000
1!
1)
1-
b0010110110110110 1
b111 2
b011 3
b111 4
15
b0010110110110110 6
b0101101101101101 7
18
#1740000000
0!
0)
0-
05
08
#1750000000
1!
1)
1-
b0101101101101101 1
b000 2
b110 3
b101 4
15
b0101101101101101 6
b1011011011011010 7
18
#1760000000
0!
0)
0-
05
08
#1770000000
1!
1)
1-
b1011011011011010 1
b111 2
b001 3
b010 4
15
b1011011011011010 6
b0110110110110100 7
18
#1780000000
0!
0)
0-
05
08
#1790000000
1!
1)
1-
b0110110110110100 1
b011 2
b011 3
b111 4
15
b0110110110110100 6
b1101101101101000 7
18
#1800000000
0!
0)
0-
05
08
#1810000000
1!
1)
1-
b1101101101101000 1
b000 2
b010 3
b001 4
15
b1101101101101000 6
b1011011011010001 7
18
#1820000000
0!
0)
0-
05
08
#1830000000
1!
1)
1-
b1011011011010001 1
b011 2
b101 3
b010 4
15
b1011011011010001 6
b0110110110100010 7
18
#1840000000
0!
0)
0-
05
08
#1850000000
1!
1)
1-
b0110110110100010 1
b101 2
b011 3
b011 4
15
b0110110110100010 6
b1101101101000101 7
18
#1860000000
0!
0)
0-
05
08
#1870000000
1!
1)
1-
b1101101101000101 1
b000 2
b100 3
b101 4
15
b1101101101000101 6
b1011011010001011 7
18
#1880000000
0!
0)
0-
05
08
#1890000000
1!
1)
1-
b1011011010001011 1
b101 2
b101 3
b010 4
15
b1011011010001011 6
b0110110100010111 7
18
#1900000000
0!
0)
0-
05
08
#1910000000
1!
1)
1-
b0110110100010111 1
b111 2
b101 4
15
b0110110100010111 6
b1101101000101110 7
18
#1920000000
0!
0)
0-
05
08
#1930000000
1!
1)
1-
b1101101000101110 1
b100 2
b010 3
b100 4
15
b1101101000101110 6
b1011010001011101 7
18
#1940000000
0!
0)
0-
05
08
#1950000000
1!
1)
1-
b1011010001011101 1
b011 2
b101 3
15
b1011010001011101 6
b0110100010111010 7
18
#1960000000
0!
0)
0-
05
08
#1970000000
1!
1)
1-
b0110100010111010 1
b111 2
b010 3
b010 4
15
b0110100010111010 6
b1101000101110100 7
18
#1980000000
0!
0)
0-
05
08
#1990000000
1!
1)
1-
b1101000101110100 1
b010 2
b101 4
15
b1101000101110100 6
b1010001011101000 7
18
#2000000000
0!
0)
0-
05
08
#2010000000
1!
1)
1-
b1010001011101000 1
b001 2
b010 4
15
b1010001011101000 6
b0100010111010001 7
18
#2020000000
0!
0)
0-
05
08
#2030000000
1!
1)
1-
b0100010111010001 1
b010 2
b101 3
b011 4
15
b0100010111010001 6
b1000101110100011 7
18
#2040000000
0!
0)
0-
05
08
#2050000000
1!
1)
1-
b1000101110100011 1
b100 2
b110 3
15
b1000101110100011 6
b0001011101000110 7
18
#2060000000
0!
0)
0-
05
08
#2070000000
1!
1)
1-
b0001011101000110 1
b001 3
b101 4
15
b0001011101000110 6
b0010111010001101 7
18
#2080000000
0!
0)
0-
05
08
#2090000000
1!
1)
1-
b0010111010001101 1
b001 2
b101 3
b110 4
15
b0010111010001101 6
b0101110100011010 7
18
#2100000000
0!
0)
0-
05
08
#2110000000
1!
1)
1-
b0101110100011010 1
b110 2
b001 3
b001 4
15
b0101110100011010 6
b1011101000110101 7
18
#2120000000
0!
0)
0-
05
08
#2130000000
1!
1)
1-
b1011101000110101 1
b011 2
b110 3
b100 4
15
b1011101000110101 6
b0111010001101010 7
18
#2140000000
0!
0)
0-
05
08
#2150000000
1!
1)
1-
b0111010001101010 1
b101 2
b011 3
b000 4
15
b0111010001101010 6
b1110100011010101 7
18
#2160000000
0!
0)
0-
05
08
#2170000000
1!
1)
1-
b1110100011010101 1
b011 2
b100 3
b110 4
15
b1110100011010101 6
b1101000110101011 7
18
#2180000000
0!
0)
0-
05
08
#2190000000
1!
1)
1-
b1101000110101011 1
b100 2
b110 3
b011 4
15
b1101000110101011 6
b1010001101010111 7
18
#2200000000
0!
0)
0-
05
08
#2210000000
1!
1)
1-
b1010001101010111 1
b111 2
b100 3
b101 4
15
b1010001101010111 6
b0100011010101110 7
18
#2220000000
0!
0)
0-
05
08
#2230000000
1!
1)
1-
b0100011010101110 1
b100 2
b011 3
b110 4
15
b0100011010101110 6
b1000110101011100 7
18
#2240000000
0!
0)
0-
05
08
#2250000000
1!
1)
1-
b1000110101011100 1
b010 2
b001 3
b101 4
15
b1000110101011100 6
b0001101010111001 7
18
#2260000000
0!
0)
0-
05
08
#2270000000
1!
1)
1-
b0001101010111001 1
b110 3
b010 4
15
b0001101010111001 6
b0011010101110010 7
18
#2280000000
0!
0)
0-
05
08
#2290000000
1!
1)
1-
b0011010101110010 1
b111 2
b011 3
b001 4
15
b0011010101110010 6
b0110101011100101 7
18
#2300000000
0!
0)
0-
05
08
#2310000000
1!
1)
1-
b0110101011100101 1
b001 2
b110 3
b110 4
15
b0110101011100101 6
b1101010111001011 7
18
#2320000000
0!
0)
0-
05
08
#2330000000
1!
1)
1-
b1101010111001011 1
b100 2
b101 3
b011 4
15
b1101010111001011 6
b1010101110010111 7
18
#2340000000
0!
0)
0-
05
08
#2350000000
1!
1)
1-
b1010101110010111 1
b111 2
b100 3
b111 4
15
b1010101110010111 6
b0101011100101110 7
18
#2360000000
0!
0)
0-
05
08
#2370000000
1!
1)
1-
b0101011100101110 1
b100 2
b011 3
b101 4
15
b0101011100101110 6
b1010111001011100 7
18
#2380000000
0!
0)
0-
05
08
#2390000000
1!
1)
1-
b1010111001011100 1
b011 2
b001 3
b100 4
15
b1010111001011100 6
b0101110010111000 7
18
#2400000000
0!
0)
0-
05
08
#2410000000
1!
1)
1-
b0101110010111000 1
b010 2
b011 3
b010 4
15
b0101110010111000 6
b1011100101110001 7
18
#2420000000
0!
0)
0-
05
08
#2430000000
1!
1)
1-
b1011100101110001 1
b011 2
b110 3
b001 4
15
b1011100101110001 6
b0111001011100010 7
18
#2440000000
0!
0)
0-
05
08
#2450000000
1!
1)
1-
b0111001011100010 1
b101 2
b010 3
b010 4
15
b0111001011100010 6
b1110010111000101 7
18
#2460000000
0!
0)
0-
05
08
#2470000000
1!
1)
1-
b1110010111000101 1
b001 2
b101 3
b111 4
15
b1110010111000101 6
b1100101110001010 7
18
#2480000000
0!
0)
0-
05
08
#2490000000
1!
1)
1-
b1100101110001010 1
b100 2
b000 3
b011 4
15
b1100101110001010 6
b1001011100010101 7
18
#2500000000
0!
0)
0-
05
08
#2510000000
1!
1)
1-
b1001011100010101 1
b010 2
b101 3
b101 4
15
b1001011100010101 6
b0010111000101011 7
18
#2520000000
0!
0)
0-
05
08
#2530000000
1!
1)
1-
b0010111000101011 1
b101 2
b111 3
b000 4
15
b0010111000101011 6
b0101110001010110 7
18
#2540000000
0!
0)
0-
05
08
#2550000000
1!
1)
1-
b0101110001010110 1
b110 2
b001 3
b100 4
15
b0101110001010110 6
b1011100010101101 7
18
#2560000000
0!
0)
0-
05
08
#2570000000
1!
1)
1-
b1011100010101101 1
b001 2
b110 3
b110 4
15
b1011100010101101 6
b0111000101011011 7
18
#2580000000
0!
0)
0-
05
08
#2590000000
1!
1)
1-
b0111000101011011 1
b111 2
b100 3
b001 4
15
b0111000101011011 6
b1110001010110110 7
18
#2600000000
0!
0)
0-
05
08
#2610000000
1!
1)
1-
b1110001010110110 1
b010 3
b110 4
15
b1110001010110110 6
b1100010101101101 7
18
#2620000000
0!
0)
0-
05
08
#2630000000
1!
1)
1-
b1100010101101101 1
b000 2
b111 3
b101 4
15
b1100010101101101 6
b1000101011011011 7
18
#2640000000
0!
0)
0-
05
08
#2650000000
1!
1)
1-
b1000101011011011 1
b110 2
b100 3
b010 4
15
b1000101011011011 6
b0001010110110111 7
18
#2660000000
0!
0)
0-
05
08
#2670000000
1!
1)
1-
b0001010110110111 1
b111 3
b111 4
15
b0001010110110111 6
b0010101101101110 7
18
#2680000000
0!
0)
0-
05
08
#2690000000
1!
1)
1-
b0010101101101110 1
b101 2
b010 3
b101 4
15
b0010101101101110 6
b0101011011011100 7
18
#2700000000
0!
0)
0-
05
08
#2710000000
1!
1)
1-
b0101011011011100 1
b010 2
b001 3
b110 4
15
b0101011011011100 6
b1010110110111001 7
18
#2720000000
0!
0)
0-
05
08
#2730000000
1!
1)
1-
b1010110110111001 1
b011 2
b111 3
b011 4
15
b1010110110111001 6
b0101101101110010 7
18
#2740000000
0!
0)
0-
05
08
#2750000000
1!
1)
1-
b0101101101110010 1
b110 2
b010 3
b001 4
15
b0101101101110010 6
b1011011011100101 7
18
#2760000000
0!
0)
0-
05
08
#2770000000
1!
1)
1-
b1011011011100101 1
b001 2
b111 3
b110 4
15
b1011011011100101 6
b0110110111001011 7
18
#2780000000
0!
0)
0-
05
08
#2790000000
1!
1)
1-
b0110110111001011 1
b101 2
b101 3
b011 4
15
b0110110111001011 6
b1101101110010111 7
18
#2800000000
0!
0)
0-
05
08
#2810000000
1!
1)
1-
b1101101110010111 1
b110 2
b100 3
b111 4
15
b1101101110010111 6
b1011011100101110 7
18
#2820000000
0!
0)
0-
05
08
#2830000000
1!
1)
1-
b1011011100101110 1
b101 2
b011 3
b101 4
15
b1011011100101110 6
b0110111001011101 7
18
#2840000000
0!
0)
0-
05
08
#2850000000
1!
1)
1-
b0110111001011101 1
b011 2
b101 3
b100 4
15
b0110111001011101 6
b1101110010111010 7
18
#2860000000
0!
0)
0-
05
08
#2870000000
1!
1)
1-
b1101110010111010 1
b110 2
b011 3
b010 4
15
b1101110010111010 6
b1011100101110100 7
18
#2880000000
0!
0)
0-
05
08
#2890000000
1!
1)
1-
b1011100101110100 1
b011 2
b010 3
b101 4
15
b1011100101110100 6
b0111001011101000 7
18
#2900000000
0!
0)
0-
05
08
#2910000000
1!
1)
1-
b0111001011101000 1
b001 2
b010 4
15
b0111001011101000 6
b1110010111010001 7
18
#2920000000
0!
0)
0-
05
08
#2930000000
1!
1)
1-
b1110010111010001 1
b011 2
b101 3
b011 4
15
b1110010111010001 6
b1100101110100011 7
18
#2940000000
0!
0)
0-
05
08
#2950000000
1!
1)
1-
b1100101110100011 1
b100 2
b110 3
15
b1100101110100011 6
b1001011101000111 7
18
#2960000000
0!
0)
0-
05
08
#2970000000
1!
1)
1-
b1001011101000111 1
b101 3
b101 4
15
b1001011101000111 6
b0010111010001110 7
18
#2980000000
0!
0)
0-
05
08
#2990000000
1!
1)
1-
b0010111010001110 1
b101 2
b001 3
b110 4
15
b0010111010001110 6
b0101110100011100 7
18
#3000000000
0!
0)
0-
05
08
#3010000000
1!
1)
1-
b0101110100011100 1
b010 2
b101 4
15
b0101110100011100 6
b1011101000111001 7
18
#3020000000
0!
0)
0-
05
08
#3030000000
1!
1)
1-
b1011101000111001 1
b011 2
b110 3
b000 4
15
b1011101000111001 6
b0111010001110010 7
18
#3040000000
0!
0)
0-
05
08
#3050000000
1!
1)
1-
b0111010001110010 1
b111 2
b011 3
15
b0111010001110010 6
b1110100011100100 7
18
#3060000000
0!
0)
0-
05
08
#3070000000
1!
1)
1-
b1110100011100100 1
b001 2
b010 3
b110 4
15
b1110100011100100 6
b1101000111001000 7
18
#3080000000
0!
0)
0-
05
08
#3090000000
1!
1)
1-
b1101000111001000 1
b000 2
b000 3
b011 4
15
b1101000111001000 6
b1010001110010001 7
18
#3100000000
0!
0)
0-
05
08
#3110000000
1!
1)
1-
b1010001110010001 1
b011 2
b100 3
15
b1010001110010001 6
b0100011100100010 7
18
#3120000000
0!
0)
0-
05
08
#3130000000
1!
1)
1-
b0100011100100010 1
b100 2
b011 3
b001 4
15
b0100011100100010 6
b1000111001000100 7
18
#3140000000
0!
0)
0-
05
08
#3150000000
1!
1)
1-
b1000111001000100 1
b000 2
b001 3
b100 4
15
b1000111001000100 6
b0001110010001000 7
18
#3160000000
0!
0)
0-
05
08
#3170000000
1!
1)
1-
b0001110010001000 1
b010 4
15
b0001110010001000 6
b0011100100010001 7
18
#3180000000
0!
0)
0-
05
08
#3190000000
1!
1)
1-
b0011100100010001 1
b011 2
b100 3
b001 4
15
b0011100100010001 6
b0111001000100011 7
18
#3200000000
0!
0)
0-
05
08
#3210000000
1!
1)
1-
b0111001000100011 1
b101 2
b110 3
b000 4
15
b0111001000100011 6
b1110010001000111 7
18
#3220000000
0!
0)
0-
05
08
#3230000000
1!
1)
1-
b1110010001000111 1
b101 3
b100 4
15
b1110010001000111 6
b1100100010001110 7
18
#3240000000
0!
0)
0-
05
08
#3250000000
1!
1)
1-
b1100100010001110 1
b100 2
b000 3
b110 4
15
b1100100010001110 6
b1001000100011101 7
18
#3260000000
0!
0)
0-
05
08
#3270000000
1!
1)
1-
b1001000100011101 1
b010 2
b100 3
b101 4
15
b1001000100011101 6
b0010001000111011 7
18
#3280000000
0!
0)
0-
05
08
