lista7/lossy_channel_tb.vcd
$date
  Thu May 18 09:43:04 2017
$end
$version
  GHDL v0
$end
$timescale
  1 fs
$end
$var reg 1 ! clk $end
$var reg 1 " work $end
$var reg 4 # data_in[3:0] $end
$var reg 4 $ encoder_data_in[3:0] $end
$var reg 8 % decoder_data_in[7:0] $end
$var reg 4 & data_out[3:0] $end
$var reg 8 ' encoder_data_out[7:0] $end
$var reg 4 ( decoder_data_out[3:0] $end
$scope module enc $end
$var reg 1 ) clk $end
$var reg 1 * work $end
$var reg 4 + data_in[3:0] $end
$var reg 8 , data_out[7:0] $end
$var reg 8 - temp_out[7:0] $end
$upscope $end
$scope module lc $end
$var reg 1 . clk $end
$var reg 1 / work $end
$var reg 8 0 data_in[7:0] $end
$var reg 8 1 data_out[7:0] $end
$var reg 8 2 temp_out[7:0] $end
$var reg 16 3 q_rand[15:0] $end
$var reg 3 4 decision[2:0] $end
$var reg 3 5 place1[2:0] $end
$var reg 3 6 place2[2:0] $end
$scope module randomizer $end
$var reg 1 7 clk $end
$var reg 16 8 q[15:0] $end
$var reg 16 9 qq[15:0] $end
$upscope $end
$upscope $end
$scope module dec $end
$var reg 1 : clk $end
$var reg 1 ; work $end
$var reg 8 < data_in[7:0] $end
$var reg 4 = data_out[3:0] $end
$var reg 3 > check[2:0] $end
$var reg 7 ? temp[6:0] $end
$var reg 4 @ temp_out[3:0] $end
$var reg 1 A parity $end
$upscope $end
$enddefinitions $end
#0
0!
0"
b0000 #
b0000 $
b00000000 %
bUUUU &
bUUUUUUUU '
b0000 (
0)
0*
b0000 +
bUUUUUUUU ,
b0000000U -
0.
0/
bUUUUUUUU 0
b00000000 1
bUUUUUUUU 2
b0000000000000000 3
b000 4
b000 5
b000 6
07
b0000000000000000 8
b0000000000000001 9
0:
0;
b00000000 <
bUUUU =
bUUU >
bUUUUUUU ?
bUUUU @
UA
#10000000
1!
bUUUUUUUU %
b0000000U '
1)
b0000000U ,
b00000000 -
1.
b0000000U 0
bUUUUUUUU 1
b0000000000000001 3
b100 5
17
b0000000000000001 8
b0000000000000011 9
1:
bUUUUUUUU <
b000 >
b0000000 ?
0A
#20000000
0!
b00000000 '
0)
b00000000 ,
0.
b00000000 0
b0000000U 2
07
0:
bUUU >
bUUUUUUU ?
b0000 @
UA
#30000000
1!
b0000000U %
b0000 &
1)
1.
b0000000U 1
b00000000 2
b0000000000000011 3
b100 4
17
b0000000000000011 8
b0000000000000111 9
1:
b0000000U <
b0000 =
bUUUU @
#40000000
0!
b00000000 %
bUUUU &
0)
0.
b00000000 1
07
0:
b00000000 <
bUUUU =
b000 >
b0000000 ?
#50000000
1!
1)
1.
b0000000000000111 3
b100 6
17
b0000000000000111 8
b0000000000001111 9
1:
b0000 @
0A
#60000000
0!
b0000 &
0)
0.
07
0:
b0000 =
#70000000
1!
1)
1.
b0000000000001111 3
17
b0000000000001111 8
b0000000000011111 9
1:
#80000000
0!
0)
0.
07
0:
#90000000
1!
1)
1.
b0000000000011111 3
b110 4
17
b0000000000011111 8
b0000000000111110 9
1:
#100000000
0!
1"
b1011 #
0)
1*
b1011 +
b10101010 -
0.
1/
07
0:
1;
#110000000
1!
b10101010 '
1)
b10101010 ,
1.
b10101010 0
b0000000000111110 3
b010 5
17
b0000000000111110 8
b0000000001111100 9
1:
#120000000
0!
0)
0.
b10101010 2
07
0:
#130000000
1!
b10101010 %
1)
1.
b10101010 1
b0000000001111100 3
b010 4
17
b0000000001111100 8
b0000000011111000 9
1:
b10101010 <
#140000000
0!
0)
0.
07
0:
b1010101 ?
#150000000
1!
1)
1.
b0000000011111000 3
b010 6
17
b0000000011111000 8
b0000000111110000 9
1:
b1011 @
#160000000
0!
b1011 &
0)
0.
07
0:
b1011 =
#170000000
1!
1)
1.
b0000000111110000 3
b011 6
17
b0000000111110000 8
b0000001111100000 9
1:
#180000000
0!
0)
0.
07
0:
#190000000
1!
1)
1.
b0000001111100000 3
b000 4
17
b0000001111100000 8
b0000011111000001 9
1:
#200000000
0!
0)
0.
07
0:
#210000000
1!
1)
1.
b0000011111000001 3
b101 5
17
b0000011111000001 8
b0000111110000011 9
1:
#220000000
0!
0)
0.
07
0:
#230000000
1!
1)
1.
b0000111110000011 3
b100 4
17
b0000111110000011 8
b0001111100000111 9
1:
#240000000
0!
0)
0.
07
0:
#250000000
1!
1)
1.
b0001111100000111 3
b101 6
17
b0001111100000111 8
b0011111000001111 9
1:
#260000000
0!
0)
0.
07
0:
#270000000
1!
1)
1.
b0011111000001111 3
b101 4
b100 6
17
b0011111000001111 8
b0111110000011110 9
1:
#280000000
0!
0)
0.
07
0:
#290000000
1!
1)
1.
b0111110000011110 3
b111 4
b001 5
17
b0111110000011110 8
b1111100000111100 9
1:
#300000000
0!
0)
0.
07
0:
#310000000
1!
1)
1.
b1111100000111100 3
b011 4
b010 5
17
b1111100000111100 8
b1111000001111001 9
1:
#320000000
0!
0)
0.
07
0:
#330000000
1!
1)
1.
b1111000001111001 3
b110 5
b000 6
17
b1111000001111001 8
b1110000011110011 9
1:
#340000000
0!
0)
0.
07
0:
#350000000
1!
1)
1.
b1110000011110011 3
b111 4
b010 6
17
b1110000011110011 8
b1100000111100111 9
1:
#360000000
0!
0)
0.
07
0:
#370000000
1!
1)
1.
b1100000111100111 3
b100 4
b111 6
17
b1100000111100111 8
b1000001111001111 9
1:
#380000000
0!
0)
0.
07
0:
#390000000
1!
1)
1.
b1000001111001111 3
b100 5
17
b1000001111001111 8
b0000011110011110 9
1:
#400000000
0!
0)
0.
07
0:
#410000000
1!
1)
1.
b0000011110011110 3
b110 4
b001 5
17
b0000011110011110 8
b0000111100111100 9
1:
#420000000
0!
0)
0.
07
0:
#430000000
1!
1)
1.
b0000111100111100 3
b010 4
b011 5
b101 6
17
b0000111100111100 8
b0001111001111000 9
1:
#440000000
0!
0)
0.
07
0:
#450000000
1!
1)
1.
b0001111001111000 3
b000 6
17
b0001111001111000 8
b0011110011110000 9
1:
#460000000
0!
0)
0.
07
0:
#470000000
1!
1)
1.
b0011110011110000 3
b011 4
b010 6
17
b0011110011110000 8
b0111100111100001 9
1:
#480000000
0!
0)
0.
07
0:
#490000000
1!
1)
1.
b0111100111100001 3
b001 4
b110 5
b011 6
17
b0111100111100001 8
b1111001111000011 9
1:
#500000000
0!
0)
0.
07
0:
#510000000
1!
1)
1.
b1111001111000011 3
b101 4
b100 5
17
b1111001111000011 8
b1110011110000110 9
1:
#520000000
0!
0)
0.
07
0:
#530000000
1!
1)
1.
b1110011110000110 3
b001 5
b111 6
17
b1110011110000110 8
b1100111100001100 9
1:
#540000000
0!
0)
0.
07
0:
#550000000
1!
1)
1.
b1100111100001100 3
b000 4
b101 6
17
b1100111100001100 8
b1001111000011001 9
1:
#560000000
0!
0)
0.
07
0:
#570000000
1!
1)
1.
b1001111000011001 3
b010 4
b101 5
b000 6
17
b1001111000011001 8
b0011110000110011 9
1:
#580000000
0!
0)
0.
07
0:
#590000000
1!
1)
1.
b0011110000110011 3
b111 4
b111 5
17
b0011110000110011 8
b0111100001100111 9
1:
#600000000
0!
0)
0.
07
0:
#610000000
1!
1)
1.
b0111100001100111 3
b101 4
b110 5
b100 6
17
b0111100001100111 8
b1111000011001111 9
1:
#620000000
0!
0)
0.
07
0:
#630000000
1!
1)
1.
b1111000011001111 3
b100 5
b110 6
17
b1111000011001111 8
b1110000110011110 9
1:
#640000000
0!
0)
0.
07
0:
#650000000
1!
1)
1.
b1110000110011110 3
b111 4
b000 5
b111 6
17
b1110000110011110 8
b1100001100111101 9
1:
#660000000
0!
0)
0.
07
0:
#670000000
1!
1)
1.
b1100001100111101 3
b010 4
b110 5
b101 6
17
b1100001100111101 8
b1000011001111010 9
1:
#680000000
0!
0)
0.
07
0:
#690000000
1!
1)
1.
b1000011001111010 3
b110 4
b011 5
b000 6
17
b1000011001111010 8
b0000110011110101 9
1:
#700000000
0!
0)
0.
07
0:
#710000000
1!
1)
1.
b0000110011110101 3
b010 4
b111 5
b110 6
17
b0000110011110101 8
b0001100111101010 9
1:
#720000000
0!
0)
0.
07
0:
#730000000
1!
1)
1.
b0001100111101010 3
b100 4
b010 5
b011 6
17
b0001100111101010 8
b0011001111010101 9
1:
#740000000
0!
0)
0.
07
0:
#750000000
1!
1)
1.
b0011001111010101 3
b011 4
b100 5
b111 6
17
b0011001111010101 8
b0110011110101011 9
1:
#760000000
0!
0)
0.
07
0:
#770000000
1!
1)
1.
b0110011110101011 3
b101 4
b111 5
b011 6
17
b0110011110101011 8
b1100111101010111 9
1:
#780000000
0!
0)
0.
07
0:
#790000000
1!
1)
1.
b1100111101010111 3
b110 4
b101 5
b101 6
17
b1100111101010111 8
b1001111010101110 9
1:
#800000000
0!
0)
0.
07
0:
#810000000
1!
1)
1.
b1001111010101110 3
b100 4
b011 5
b110 6
17
b1001111010101110 8
b0011110101011100 9
1:
#820000000
0!
0)
0.
07
0:
#830000000
1!
1)
1.
b0011110101011100 3
b011 4
b001 5
b101 6
17
b0011110101011100 8
b0111101010111001 9
1:
#840000000
0!
0)
0.
07
0:
#850000000
1!
1)
1.
b0111101010111001 3
b110 5
b010 6
17
b0111101010111001 8
b1111010101110010 9
1:
#860000000
0!
0)
0.
07
0:
#870000000
1!
1)
1.
b1111010101110010 3
b111 4
b011 5
b001 6
17
b1111010101110010 8
b1110101011100101 9
1:
#880000000
0!
0)
0.
07
0:
#890000000
1!
1)
1.
b1110101011100101 3
b001 4
b110 5
b110 6
17
b1110101011100101 8
b1101010111001010 9
1:
#900000000
0!
0)
0.
07
0:
#910000000
1!
1)
1.
b1101010111001010 3
b100 4
b001 5
b011 6
17
b1101010111001010 8
b1010101110010101 9
1:
#920000000
0!
0)
0.
07
0:
#930000000
1!
1)
1.
b1010101110010101 3
b011 4
b100 5
b111 6
17
b1010101110010101 8
b0101011100101010 9
1:
#940000000
0!
0)
0.
07
0:
#950000000
1!
1)
1.
b0101011100101010 3
b100 4
b011 5
b001 6
17
b0101011100101010 8
b1010111001010100 9
1:
#960000000
0!
0)
0.
07
0:
#970000000
1!
1)
1.
b1010111001010100 3
b011 4
b001 5
b100 6
17
b1010111001010100 8
b0101110010101000 9
1:
#980000000
0!
0)
0.
07
0:
#990000000
1!
1)
1.
b0101110010101000 3
b000 4
b011 5
b010 6
17
b0101110010101000 8
b1011100101010000 9
1:
#1000000000
0!
0)
0.
07
0:
#1010000000
1!
1)
1.
b1011100101010000 3
b011 4
b000 5
b001 6
17
b1011100101010000 8
b0111001010100000 9
1:
#1020000000
0!
0)
0.
07
0:
#1030000000
1!
1)
1.
b0111001010100000 3
b001 4
b010 5
b010 6
17
b0111001010100000 8
b1110010101000001 9
1:
#1040000000
0!
0)
0.
07
0:
#1050000000
1!
1)
1.
b1110010101000001 3
b101 5
b001 6
17
b1110010101000001 8
b1100101010000010 9
1:
#1060000000
0!
0)
0.
07
0:
#1070000000
1!
1)
1.
b1100101010000010 3
b100 4
b000 5
b010 6
17
b1100101010000010 8
b1001010100000101 9
1:
#1080000000
0!
0)
0.
07
0:
#1090000000
1!
1)
1.
b1001010100000101 3
b000 4
b101 5
b101 6
17
b1001010100000101 8
b0010101000001010 9
1:
#1100000000
0!
0)
0.
07
0:
#1110000000
1!
1)
1.
b0010101000001010 3
b101 4
b000 5
b000 6
17
b0010101000001010 8
b0101010000010100 9
1:
#1120000000
0!
0)
0.
07
0:
#1130000000
1!
1)
1.
b0101010000010100 3
b010 4
b001 5
b100 6
17
b0101010000010100 8
b1010100000101001 9
1:
#1140000000
0!
0)
0.
07
0:
#1150000000
1!
1)
1.
b1010100000101001 3
b001 4
b110 5
b000 6
17
b1010100000101001 8
b0101000001010011 9
1:
#1160000000
0!
0)
0.
07
0:
#1170000000
1!
1)
1.
b0101000001010011 3
b110 4
b100 5
17
b0101000001010011 8
b1010000010100111 9
1:
#1180000000
0!
0)
0.
07
0:
#1190000000
1!
1)
1.
b1010000010100111 3
b101 4
b110 5
b110 6
17
b1010000010100111 8
b0100000101001111 9
1:
#1200000000
0!
0)
0.
07
0:
#1210000000
1!
1)
1.
b0100000101001111 3
b100 4
b100 5
b101 6
17
b0100000101001111 8
b1000001010011110 9
1:
#1220000000
0!
0)
0.
07
0:
#1230000000
1!
1)
1.
b1000001010011110 3
b110 4
b000 5
b110 6
17
b1000001010011110 8
b0000010100111101 9
1:
#1240000000
0!
0)
0.
07
0:
#1250000000
1!
1)
1.
b0000010100111101 3
b010 4
b111 5
b101 6
17
b0000010100111101 8
b0000101001111010 9
1:
#1260000000
0!
0)
0.
07
0:
#1270000000
1!
1)
1.
b0000101001111010 3
b110 4
b010 5
b000 6
17
b0000101001111010 8
b0001010011110100 9
1:
#1280000000
0!
0)
0.
07
0:
#1290000000
1!
1)
1.
b0001010011110100 3
b010 4
b011 5
b110 6
17
b0001010011110100 8
b0010100111101000 9
1:
#1300000000
0!
0)
0.
07
0:
#1310000000
1!
1)
1.
b0010100111101000 3
b001 4
b010 5
b011 6
17
b0010100111101000 8
b0101001111010000 9
1:
#1320000000
0!
0)
0.
07
0:
#1330000000
1!
1)
1.
b0101001111010000 3
b010 4
b000 5
17
b0101001111010000 8
b1010011110100001 9
1:
#1340000000
0!
0)
0.
07
0:
#1350000000
1!
1)
1.
b1010011110100001 3
b001 4
b111 5
17
b1010011110100001 8
b0100111101000011 9
1:
#1360000000
0!
0)
0.
07
0:
#1370000000
1!
1)
1.
b0100111101000011 3
b100 4
b101 5
b001 6
17
b0100111101000011 8
b1001111010000110 9
1:
#1380000000
0!
0)
0.
07
0:
#1390000000
1!
1)
1.
b1001111010000110 3
b001 5
b110 6
17
b1001111010000110 8
b0011110100001100 9
1:
#1400000000
0!
0)
0.
07
0:
#1410000000
1!
1)
1.
b0011110100001100 3
b001 4
b101 6
17
b0011110100001100 8
b0111101000011000 9
1:
#1420000000
0!
0)
0.
07
0:
#1430000000
1!
1)
1.
b0111101000011000 3
b011 4
b000 5
b000 6
17
b0111101000011000 8
b1111010000110000 9
1:
#1440000000
0!
0)
0.
07
0:
#1450000000
1!
1)
1.
b1111010000110000 3
b011 5
17
b1111010000110000 8
b1110100001100001 9
1:
#1460000000
0!
0)
0.
07
0:
#1470000000
1!
1)
1.
b1110100001100001 3
b001 4
b110 5
17
b1110100001100001 8
b1101000011000010 9
1:
#1480000000
0!
0)
0.
07
0:
#1490000000
1!
1)
1.
b1101000011000010 3
b100 4
b000 5
b010 6
17
b1101000011000010 8
b1010000110000101 9
1:
#1500000000
0!
0)
0.
07
0:
#1510000000
1!
1)
1.
b1010000110000101 3
b001 4
b100 5
b111 6
17
b1010000110000101 8
b0100001100001011 9
1:
#1520000000
0!
0)
0.
07
0:
#1530000000
1!
1)
1.
b0100001100001011 3
b100 4
b001 6
17
b0100001100001011 8
b1000011000010110 9
1:
#1540000000
0!
0)
0.
07
0:
#1550000000
1!
1)
1.
b1000011000010110 3
b110 4
b001 5
b100 6
17
b1000011000010110 8
b0000110000101101 9
1:
#1560000000
0!
0)
0.
07
0:
#1570000000
1!
1)
1.
b0000110000101101 3
b000 4
b111 5
17
b0000110000101101 8
b0001100001011011 9
1:
#1580000000
0!
0)
0.
07
0:
#1590000000
1!
1)
1.
b0001100001011011 3
b110 4
b100 5
b000 6
17
b0001100001011011 8
b0011000010110110 9
1:
#1600000000
0!
0)
0.
07
0:
#1610000000
1!
1)
1.
b0011000010110110 3
b111 4
b010 5
b110 6
17
b0011000010110110 8
b0110000101101101 9
1:
#1620000000
0!
0)
0.
07
0:
#1630000000
1!
1)
1.
b0110000101101101 3
b001 4
b110 5
b101 6
17
b0110000101101101 8
b1100001011011011 9
1:
#1640000000
0!
0)
0.
07
0:
#1650000000
1!
1)
1.
b1100001011011011 3
b110 4
b100 5
b010 6
17
b1100001011011011 8
b1000010110110110 9
1:
#1660000000
0!
0)
0.
07
0:
#1670000000
1!
1)
1.
b1000010110110110 3
b011 5
b111 6
17
b1000010110110110 8
b0000101101101101 9
1:
#1680000000
0!
0)
0.
07
0:
#1690000000
1!
1)
1.
b0000101101101101 3
b000 4
b110 5
b101 6
17
b0000101101101101 8
b0001011011011011 9
1:
#1700000000
0!
0)
0.
07
0:
#1710000000
1!
1)
1.
b0001011011011011 3
b110 4
b101 5
b010 6
17
b0001011011011011 8
b0010110110110110 9
1:
#1720000000
0!
0)
0.
07
0:
#1730000000
1!
1)
1.
b0010110110110110 3
b111 4
b011 5
b111 6
17
b0010110110110110 8
b0101101101101101 9
1:
#1740000000
0!
0)
0.
07
0:
#1750000000
1!
1)
1.
b0101101101101101 3
b000 4
b110 5
b101 6
17
b0101101101101101 8
b1011011011011010 9
1:
#1760000000
0!
0)
0.
07
0:
#1770000000
1!
1)
1.
b1011011011011010 3
b111 4
b001 5
b010 6
17
b1011011011011010 8
b0110110110110100 9
1:
#1780000000
0!
0)
0.
07
0:
#1790000000
1!
1)
1.
b0110110110110100 3
b011 4
b011 5
b111 6
17
b0110110110110100 8
b1101101101101000 9
1:
#1800000000
0!
0)
0.
07
0:
#1810000000
1!
1)
1.
b1101101101101000 3
b000 4
b010 5
b001 6
17
b1101101101101000 8
b1011011011010001 9
1:
#1820000000
0!
0)
0.
07
0:
#1830000000
1!
1)
1.
b1011011011010001 3
b011 4
b101 5
b010 6
17
b1011011011010001 8
b0110110110100010 9
1:
#1840000000
0!
0)
0.
07
0:
#1850000000
1!
1)
1.
b0110110110100010 3
b101 4
b011 5
b011 6
17
b0110110110100010 8
b1101101101000101 9
1:
#1860000000
0!
0)
0.
07
0:
#1870000000
1!
1)
1.
b1101101101000101 3
b000 4
b100 5
b101 6
17
b1101101101000101 8
b1011011010001011 9
1:
#1880000000
0!
0)
0.
07
0:
#1890000000
1!
1)
1.
b1011011010001011 3
b101 4
b101 5
b010 6
17
b1011011010001011 8
b0110110100010111 9
1:
#1900000000
0!
0)
0.
07
0:
#1910000000
1!
1)
1.
b0110110100010111 3
b111 4
b101 6
17
b0110110100010111 8
b1101101000101110 9
1:
#1920000000
0!
0)
0.
07
0:
#1930000000
1!
1)
1.
b1101101000101110 3
b100 4
b010 5
b100 6
17
b1101101000101110 8
b1011010001011101 9
1:
#1940000000
0!
0)
0.
07
0:
#1950000000
1!
1)
1.
b1011010001011101 3
b011 4
b101 5
17
b1011010001011101 8
b0110100010111010 9
1:
#1960000000
0!
0)
0.
07
0:
#1970000000
1!
1)
1.
b0110100010111010 3
b111 4
b010 5
b010 6
17
b0110100010111010 8
b1101000101110100 9
1:
#1980000000
0!
0)
0.
07
0:
#1990000000
1!
1)
1.
b1101000101110100 3
b010 4
b101 6
17
b1101000101110100 8
b1010001011101000 9
1:
#2000000000
0!
0)
0.
07
0:
#2010000000
1!
1)
1.
b1010001011101000 3
b001 4
b010 6
17
b1010001011101000 8
b0100010111010001 9
1:
#2020000000
0!
0)
0.
07
0:
#2030000000
1!
1)
1.
b0100010111010001 3
b010 4
b101 5
b011 6
17
b0100010111010001 8
b1000101110100011 9
1:
#2040000000
0!
0)
0.
07
0:
#2050000000
1!
1)
1.
b1000101110100011 3
b100 4
b110 5
17
b1000101110100011 8
b0001011101000110 9
1:
#2060000000
0!
0)
0.
07
0:
#2070000000
1!
1)
1.
b0001011101000110 3
b001 5
b101 6
17
b0001011101000110 8
b0010111010001101 9
1:
#2080000000
0!
0)
0.
07
0:
#2090000000
1!
1)
1.
b0010111010001101 3
b001 4
b101 5
b110 6
17
b0010111010001101 8
b0101110100011010 9
1:
#2100000000
0!
0)
0.
07
0:
#2110000000
1!
1)
1.
b0101110100011010 3
b110 4
b001 5
b001 6
17
b0101110100011010 8
b1011101000110101 9
1:
#2120000000
0!
0)
0.
07
0:
#2130000000
1!
1)
1.
b1011101000110101 3
b011 4
b110 5
b100 6
17
b1011101000110101 8
b0111010001101010 9
1:
#2140000000
0!
0)
0.
07
0:
#2150000000
1!
1)
1.
b0111010001101010 3
b101 4
b011 5
b000 6
17
b0111010001101010 8
b1110100011010101 9
1:
#2160000000
0!
0)
0.
07
0:
#2170000000
1!
1)
1.
b1110100011010101 3
b011 4
b100 5
b110 6
17
b1110100011010101 8
b1101000110101011 9
1:
#2180000000
0!
0)
0.
07
0:
#2190000000
1!
1)
1.
b1101000110101011 3
b100 4
b110 5
b011 6
17
b1101000110101011 8
b1010001101010111 9
1:
#2200000000
0!
0)
0.
07
0:
#2210000000
1!
1)
1.
b1010001101010111 3
b111 4
b100 5
b101 6
17
b1010001101010111 8
b0100011010101110 9
1:
#2220000000
0!
0)
0.
07
0:
#2230000000
1!
1)
1.
b0100011010101110 3
b100 4
b011 5
b110 6
17
b0100011010101110 8
b1000110101011100 9
1:
#2240000000
0!
0)
0.
07
0:
#2250000000
1!
1)
1.
b1000110101011100 3
b010 4
b001 5
b101 6
17
b1000110101011100 8
b0001101010111001 9
1:
#2260000000
0!
0)
0.
07
0:
#2270000000
1!
1)
1.
b0001101010111001 3
b110 5
b010 6
17
b0001101010111001 8
b0011010101110010 9
1:
#2280000000
0!
0)
0.
07
0:
#2290000000
1!
1)
1.
b0011010101110010 3
b111 4
b011 5
b001 6
17
b0011010101110010 8
b0110101011100101 9
1:
#2300000000
0!
0)
0.
07
0:
#2310000000
1!
1)
1.
b0110101011100101 3
b001 4
b110 5
b110 6
17
b0110101011100101 8
b1101010111001011 9
1:
#2320000000
0!
0)
0.
07
0:
#2330000000
1!
1)
1.
b1101010111001011 3
b100 4
b101 5
b011 6
17
b1101010111001011 8
b1010101110010111 9
1:
#2340000000
0!
0)
0.
07
0:
#2350000000
1!
1)
1.
b1010101110010111 3
b111 4
b100 5
b111 6
17
b1010101110010111 8
b0101011100101110 9
1:
#2360000000
0!
0)
0.
07
0:
#2370000000
1!
1)
1.
b0101011100101110 3
b100 4
b011 5
b101 6
17
b0101011100101110 8
b1010111001011100 9
1:
#2380000000
0!
0)
0.
07
0:
#2390000000
1!
1)
1.
b1010111001011100 3
b011 4
b001 5
b100 6
17
b1010111001011100 8
b0101110010111000 9
1:
#2400000000
0!
0)
0.
07
0:
#2410000000
1!
1)
1.
b0101110010111000 3
b010 4
b011 5
b010 6
17
b0101110010111000 8
b1011100101110001 9
1:
#2420000000
0!
0)
0.
07
0:
#2430000000
1!
1)
1.
b1011100101110001 3
b011 4
b110 5
b001 6
17
b1011100101110001 8
b0111001011100010 9
1:
#2440000000
0!
0)
0.
07
0:
#2450000000
1!
1)
1.
b0111001011100010 3
b101 4
b010 5
b010 6
17
b0111001011100010 8
b1110010111000101 9
1:
#2460000000
0!
0)
0.
07
0:
#2470000000
1!
1)
1.
b1110010111000101 3
b001 4
b101 5
b111 6
17
b1110010111000101 8
b1100101110001010 9
1:
#2480000000
0!
0)
0.
07
0:
#2490000000
1!
1)
1.
b1100101110001010 3
b100 4
b000 5
b011 6
17
b1100101110001010 8
b1001011100010101 9
1:
#2500000000
0!
0)
0.
07
0:
#2510000000
1!
1)
1.
b1001011100010101 3
b010 4
b101 5
b101 6
17
b1001011100010101 8
b0010111000101011 9
1:
#2520000000
0!
0)
0.
07
0:
#2530000000
1!
1)
1.
b0010111000101011 3
b101 4
b111 5
b000 6
17
b0010111000101011 8
b0101110001010110 9
1:
#2540000000
0!
0)
0.
07
0:
#2550000000
1!
1)
1.
b0101110001010110 3
b110 4
b001 5
b100 6
17
b0101110001010110 8
b1011100010101101 9
1:
#2560000000
0!
0)
0.
07
0:
#2570000000
1!
1)
1.
b1011100010101101 3
b001 4
b110 5
b110 6
17
b1011100010101101 8
b0111000101011011 9
1:
#2580000000
0!
0)
0.
07
0:
#2590000000
1!
1)
1.
b0111000101011011 3
b111 4
b100 5
b001 6
17
b0111000101011011 8
b1110001010110110 9
1:
#2600000000
0!
0)
0.
07
0:
#2610000000
1!
1)
1.
b1110001010110110 3
b010 5
b110 6
17
b1110001010110110 8
b1100010101101101 9
1:
#2620000000
0!
0)
0.
07
0:
#2630000000
1!
1)
1.
b1100010101101101 3
b000 4
b111 5
b101 6
17
b1100010101101101 8
b1000101011011011 9
1:
#2640000000
0!
0)
0.
07
0:
#2650000000
1!
1)
1.
b1000101011011011 3
b110 4
b100 5
b010 6
17
b1000101011011011 8
b0001010110110111 9
1:
#2660000000
0!
0)
0.
07
0:
#2670000000
1!
1)
1.
b0001010110110111 3
b111 5
b111 6
17
b0001010110110111 8
b0010101101101110 9
1:
#2680000000
0!
0)
0.
07
0:
#2690000000
1!
1)
1.
b0010101101101110 3
b101 4
b010 5
b101 6
17
b0010101101101110 8
b0101011011011100 9
1:
#2700000000
0!
0)
0.
07
0:
#2710000000
1!
1)
1.
b0101011011011100 3
b010 4
b001 5
b110 6
17
b0101011011011100 8
b1010110110111001 9
1:
#2720000000
0!
0)
0.
07
0:
#2730000000
1!
1)
1.
b1010110110111001 3
b011 4
b111 5
b011 6
17
b1010110110111001 8
b0101101101110010 9
1:
#2740000000
0!
0)
0.
07
0:
#2750000000
1!
1)
1.
b0101101101110010 3
b110 4
b010 5
b001 6
17
b0101101101110010 8
b1011011011100101 9
1:
#2760000000
0!
0)
0.
07
0:
#2770000000
1!
1)
1.
b1011011011100101 3
b001 4
b111 5
b110 6
17
b1011011011100101 8
b0110110111001011 9
1:
#2780000000
0!
0)
0.
07
0:
#2790000000
1!
1)
1.
b0110110111001011 3
b101 4
b101 5
b011 6
17
b0110110111001011 8
b1101101110010111 9
1:
#2800000000
0!
0)
0.
07
0:
#2810000000
1!
1)
1.
b1101101110010111 3
b110 4
b100 5
b111 6
17
b1101101110010111 8
b1011011100101110 9
1:
#2820000000
0!
0)
0.
07
0:
#2830000000
1!
1)
1.
b1011011100101110 3
b101 4
b011 5
b101 6
17
b1011011100101110 8
b0110111001011101 9
1:
#2840000000
0!
0)
0.
07
0:
#2850000000
1!
1)
1.
b0110111001011101 3
b011 4
b101 5
b100 6
17
b0110111001011101 8
b1101110010111010 9
1:
#2860000000
0!
0)
0.
07
0:
#2870000000
1!
1)
1.
b1101110010111010 3
b110 4
b011 5
b010 6
17
b1101110010111010 8
b1011100101110100 9
1:
#2880000000
0!
0)
0.
07
0:
#2890000000
1!
1)
1.
b1011100101110100 3
b011 4
b010 5
b101 6
17
b1011100101110100 8
b0111001011101000 9
1:
#2900000000
0!
0)
0.
07
0:
#2910000000
1!
1)
1.
b0111001011101000 3
b001 4
b010 6
17
b0111001011101000 8
b1110010111010001 9
1:
#2920000000
0!
0)
0.
07
0:
#2930000000
1!
1)
1.
b1110010111010001 3
b011 4
b101 5
b011 6
17
b1110010111010001 8
b1100101110100011 9
1:
#2940000000
0!
0)
0.
07
0:
#2950000000
1!
1)
1.
b1100101110100011 3
b100 4
b110 5
17
b1100101110100011 8
b1001011101000111 9
1:
#2960000000
0!
0)
0.
07
0:
#2970000000
1!
1)
1.
b1001011101000111 3
b101 5
b101 6
17
b1001011101000111 8
b0010111010001110 9
1:
#2980000000
0!
0)
0.
07
0:
#2990000000
1!
1)
1.
b0010111010001110 3
b101 4
b001 5
b110 6
17
b0010111010001110 8
b0101110100011100 9
1:
#3000000000
0!
0)
0.
07
0:
#3010000000
1!
1)
1.
b0101110100011100 3
b010 4
b101 6
17
b0101110100011100 8
b1011101000111001 9
1:
#3020000000
0!
0)
0.
07
0:
#3030000000
1!
1)
1.
b1011101000111001 3
b011 4
b110 5
b000 6
17
b1011101000111001 8
b0111010001110010 9
1:
#3040000000
0!
0)
0.
07
0:
#3050000000
1!
1)
1.
b0111010001110010 3
b111 4
b011 5
17
b0111010001110010 8
b1110100011100100 9
1:
#3060000000
0!
0)
0.
07
0:
#3070000000
1!
1)
1.
b1110100011100100 3
b001 4
b010 5
b110 6
17
b1110100011100100 8
b1101000111001000 9
1:
#3080000000
0!
0)
0.
07
0:
#3090000000
1!
1)
1.
b1101000111001000 3
b000 4
b000 5
b011 6
17
b1101000111001000 8
b1010001110010001 9
1:
#3100000000
0!
0)
0.
07
0:
#3110000000
1!
1)
1.
b1010001110010001 3
b011 4
b100 5
17
b1010001110010001 8
b0100011100100010 9
1:
#3120000000
0!
0)
0.
07
0:
#3130000000
1!
1)
1.
b0100011100100010 3
b100 4
b011 5
b001 6
17
b0100011100100010 8
b1000111001000100 9
1:
#3140000000
0!
0)
0.
07
0:
#3150000000
1!
1)
1.
b1000111001000100 3
b000 4
b001 5
b100 6
17
b1000111001000100 8
b0001110010001000 9
1:
#3160000000
0!
0)
0.
07
0:
#3170000000
1!
1)
1.
b0001110010001000 3
b010 6
17
b0001110010001000 8
b0011100100010001 9
1:
#3180000000
0!
0)
0.
07
0:
#3190000000
1!
1)
1.
b0011100100010001 3
b011 4
b100 5
b001 6
17
b0011100100010001 8
b0111001000100011 9
1:
#3200000000
0!
0)
0.
07
0:
#3210000000
1!
1)
1.
b0111001000100011 3
b101 4
b110 5
b000 6
17
b0111001000100011 8
b1110010001000111 9
1:
#3220000000
0!
0)
0.
07
0:
#3230000000
1!
1)
1.
b1110010001000111 3
b101 5
b100 6
17
b1110010001000111 8
b1100100010001110 9
1:
#3240000000
0!
0)
0.
07
0:
#3250000000
1!
1)
1.
b1100100010001110 3
b100 4
b000 5
b110 6
17
b1100100010001110 8
b1001000100011101 9
1:
#3260000000
0!
0)
0.
07
0:
#3270000000
1!
1)
1.
b1001000100011101 3
b010 4
b100 5
b101 6
17
b1001000100011101 8
b0010001000111011 9
1:
#3280000000
0!
0)
0.
07
0:
#3290000000
1!
1)
1.
b0010001000111011 3
b111 4
b110 5
b000 6
17
b0010001000111011 8
b0100010001110111 9
1:
#3300000000
0!
0)
0.
07
0:
#3310000000
1!
1)
1.
b0100010001110111 3
b110 4
b111 5
b100 6
17
b0100010001110111 8
b1000100011101111 9
1:
#3320000000
0!
0)
0.
07
0:
